<?xml version="1.0" encoding="UTF-8" standalone="no"?>
<!-- Created with Inkscape (http://www.inkscape.org/) -->
<svg
   xmlns:dc="http://purl.org/dc/elements/1.1/"
   xmlns:cc="http://web.resource.org/cc/"
   xmlns:rdf="http://www.w3.org/1999/02/22-rdf-syntax-ns#"
   xmlns:svg="http://www.w3.org/2000/svg"
   xmlns="http://www.w3.org/2000/svg"
   xmlns:xlink="http://www.w3.org/1999/xlink"
   xmlns:sodipodi="http://inkscape.sourceforge.net/DTD/sodipodi-0.dtd"
   xmlns:inkscape="http://www.inkscape.org/namespaces/inkscape"
   width="48.000000px"
   height="48.000000px"
   id="svg2"
   sodipodi:version="0.32"
   inkscape:version="0.43"
   sodipodi:docbase="/home/silvestre/Desktop/yasis/scalable/apps"
   sodipodi:docname="stock_keyring.svg">
  <defs
     id="defs4">
    <linearGradient
       inkscape:collect="always"
       id="linearGradient2289">
      <stop
         style="stop-color:#f0e8b9;stop-opacity:1"
         offset="0"
         id="stop2291" />
      <stop
         style="stop-color:#c1a72d;stop-opacity:1"
         offset="1"
         id="stop2293" />
    </linearGradient>
    <linearGradient
       inkscape:collect="always"
       id="linearGradient4121">
      <stop
         style="stop-color:#ffffff;stop-opacity:1;"
         offset="0"
         id="stop4123" />
      <stop
         style="stop-color:#ffffff;stop-opacity:0;"
         offset="1"
         id="stop4125" />
    </linearGradient>
    <linearGradient
       inkscape:collect="always"
       id="linearGradient4094">
      <stop
         style="stop-color:#444444;stop-opacity:1;"
         offset="0"
         id="stop4096" />
      <stop
         style="stop-color:#444444;stop-opacity:0;"
         offset="1"
         id="stop4098" />
    </linearGradient>
    <linearGradient
       id="linearGradient4067">
      <stop
         style="stop-color:#cbcbcb;stop-opacity:1;"
         offset="0"
         id="stop4069" />
      <stop
         id="stop4076"
         offset="0.50000000"
         style="stop-color:#fafafa;stop-opacity:1.0000000;" />
      <stop
         style="stop-color:#cbcbcb;stop-opacity:1.0000000"
         offset="1"
         id="stop4071" />
    </linearGradient>
    <linearGradient
       inkscape:collect="always"
       xlink:href="#linearGradient4067"
       id="linearGradient1368"
       gradientUnits="userSpaceOnUse"
       x1="-38.515362"
       y1="17.999998"
       x2="-26.019138"
       y2="17.999998" />
    <linearGradient
       inkscape:collect="always"
       xlink:href="#linearGradient4094"
       id="linearGradient1370"
       gradientUnits="userSpaceOnUse"
       x1="-25.902058"
       y1="2.0930214"
       x2="-32.324898"
       y2="2.0930214" />
    <linearGradient
       inkscape:collect="always"
       xlink:href="#linearGradient4121"
       id="linearGradient1372"
       gradientUnits="userSpaceOnUse"
       x1="38.310902"
       y1="40.684658"
       x2="36.440941"
       y2="38.814697" />
    <linearGradient
       inkscape:collect="always"
       xlink:href="#linearGradient4067"
       id="linearGradient1394"
       gradientUnits="userSpaceOnUse"
       x1="-38.515362"
       y1="17.999998"
       x2="-26.019138"
       y2="17.999998" />
    <linearGradient
       inkscape:collect="always"
       xlink:href="#linearGradient4094"
       id="linearGradient1396"
       gradientUnits="userSpaceOnUse"
       x1="-25.902058"
       y1="2.0930214"
       x2="-32.324898"
       y2="2.0930214" />
    <linearGradient
       inkscape:collect="always"
       xlink:href="#linearGradient4121"
       id="linearGradient1398"
       gradientUnits="userSpaceOnUse"
       x1="38.310902"
       y1="40.684658"
       x2="36.440941"
       y2="38.814697" />
    <radialGradient
       inkscape:collect="always"
       xlink:href="#linearGradient2289"
       id="radialGradient2295"
       cx="4.9244614"
       cy="6.2049346"
       fx="4.9244614"
       fy="6.2049346"
       r="12.265625"
       gradientTransform="matrix(0.840812,5.79296e-16,-5.786182e-16,0.839828,0.440487,1.951895)"
       gradientUnits="userSpaceOnUse" />
  </defs>
  <sodipodi:namedview
     id="base"
     pagecolor="#ffffff"
     bordercolor="#666666"
     borderopacity="1.0"
     inkscape:pageopacity="0.0"
     inkscape:pageshadow="2"
     inkscape:zoom="1"
     inkscape:cx="72.043069"
     inkscape:cy="22.698135"
     inkscape:document-units="px"
     inkscape:current-layer="layer1"
     showguides="true"
     inkscape:guide-bbox="true"
     inkscape:window-width="889"
     inkscape:window-height="582"
     inkscape:window-x="6"
     inkscape:window-y="46" />
  <metadata
     id="metadata7">
    <rdf:RDF>
      <cc:Work
         rdf:about="">
        <dc:format>image/svg+xml</dc:format>
        <dc:type
           rdf:resource="http://purl.org/dc/dcmitype/StillImage" />
      </cc:Work>
    </rdf:RDF>
  </metadata>
  <g
     inkscape:label="Layer 1"
     inkscape:groupmode="layer"
     id="layer1">
    <g
       id="g1357"
       transform="matrix(-0.401895,0.696101,-0.696101,-0.401895,64.25858,7.985305)">
      <g
         transform="matrix(0.808368,0,0,0.808368,61.57098,17.88987)"
         id="g4102">
        <g
           id="g4082">
          <path
             sodipodi:nodetypes="cccccsssccccccccccccccccccsssc"
             id="path3330"
             d="M -32,-16.09375 L -35.1875,-10.5625 L -35.1875,11.5 L -38.0625,11.5 L -38.0625,16.46875 C -41.041875,18.398496 -43.000001,21.444605 -43,25 C -42.999999,30.930792 -37.624001,35.750002 -31,35.75 C -24.375998,35.750001 -18.999999,30.930791 -19,25 C -18.999999,20.986492 -21.582812,17.726365 -25.25,15.9375 L -25.25,11.5 L -28.09375,11.5 L -28.09375,11.34375 L -29.375,10.09375 L -29.375,6.84375 L -26.8125,6.1875 L -29.34375,3.65625 L -26.8125,3.65625 L -26.8125,-0.25 L -29.34375,-0.25 L -29.34375,-2.75 L -27.375,-3.875 L -27.375,-7.78125 L -28.78125,-8.90625 L -25.6875,-9.75 L -32,-16.09375 z M -31,23.082509 C -28.793233,23.082508 -27,24.875742 -27,27.082509 C -27,29.289277 -28.793233,31.082509 -31,31.082509 C -33.206767,31.082507 -35,29.289276 -35,27.082509 C -35.000001,24.875743 -33.206767,23.082509 -31,23.082509 z "
             style="opacity:1;color:#000000;fill:url(#linearGradient1368);fill-opacity:1;fill-rule:nonzero;stroke:#3c3c3c;stroke-width:2.0007453;stroke-linecap:round;stroke-linejoin:round;marker:none;marker-start:none;marker-mid:none;marker-end:none;stroke-miterlimit:4;stroke-dasharray:none;stroke-dashoffset:0;stroke-opacity:1;visibility:visible;display:inline;overflow:visible" />
          <path
             sodipodi:nodetypes="ccsssccc"
             id="path4080"
             d="M -37.031614,12.403172 L -37.031614,16.889634 C -39.811561,18.659166 -42.196757,21.801215 -42.196756,25.061431 C -42.196755,30.499831 -37.180607,34.918936 -30.999992,34.918934 C -24.819375,34.918935 -19.803226,30.49983 -19.803227,25.061431 C -19.803226,21.381137 -22.701527,18.112605 -26.123248,16.472257 L -26.123248,12.403172 L -37.031614,12.403172 z "
             style="opacity:1;color:#000000;fill:none;fill-opacity:1;fill-rule:nonzero;stroke:#ffffff;stroke-width:1.11812639;stroke-linecap:round;stroke-linejoin:round;marker:none;marker-start:none;marker-mid:none;marker-end:none;stroke-miterlimit:4;stroke-dasharray:none;stroke-dashoffset:0;stroke-opacity:1;visibility:visible;display:inline;overflow:visible" />
        </g>
        <path
           style="fill:none;fill-opacity:0.75;fill-rule:evenodd;stroke:#ffffff;stroke-width:1.67719078;stroke-linecap:round;stroke-linejoin:miter;stroke-miterlimit:4;stroke-dasharray:none;stroke-opacity:1"
           d="M -34.056721,12.265956 L -34.056721,-9.9339092 L -31.510884,-14.343428"
           id="path4086" />
        <g
           id="g4088">
          <path
             sodipodi:nodetypes="cccccccccccccccccccc"
             id="path4090"
             d="M -32,-16.09375 L -35.1875,-10.5625 L -35.1875,11.5 L -38.0625,11.5 L -25.25,11.5 L -28.09375,11.5 L -28.09375,11.34375 L -29.375,10.09375 L -29.375,6.84375 L -26.8125,6.1875 L -29.34375,3.65625 L -26.8125,3.65625 L -26.8125,-0.25 L -29.34375,-0.25 L -29.34375,-2.75 L -27.375,-3.875 L -27.375,-7.78125 L -28.78125,-8.90625 L -25.6875,-9.75 L -32,-16.09375 z "
             style="opacity:1;color:#000000;fill:url(#linearGradient1370);fill-opacity:1;fill-rule:nonzero;stroke:none;stroke-width:1;stroke-linecap:round;stroke-linejoin:round;marker:none;marker-start:none;marker-mid:none;marker-end:none;stroke-miterlimit:4;stroke-dasharray:none;stroke-dashoffset:0;stroke-opacity:1;visibility:visible;display:inline;overflow:visible" />
          <path
             sodipodi:nodetypes="ccsssccc"
             id="path4092"
             d="M -37.031614,12.403172 L -37.031614,16.889634 C -39.811561,18.659166 -42.196757,21.801215 -42.196756,25.061431 C -42.196755,30.499831 -37.180607,34.918936 -30.999992,34.918934 C -24.819375,34.918935 -19.803226,30.49983 -19.803227,25.061431 C -19.803226,21.381137 -22.701527,18.112605 -26.123248,16.472257 L -26.123248,12.403172 L -37.031614,12.403172 z "
             style="opacity:1;color:#000000;fill:none;fill-opacity:1;fill-rule:nonzero;stroke:#ffffff;stroke-width:1.11812639;stroke-linecap:round;stroke-linejoin:round;marker:none;marker-start:none;marker-mid:none;marker-end:none;stroke-miterlimit:4;stroke-dasharray:none;stroke-dashoffset:0;stroke-opacity:1;visibility:visible;display:inline;overflow:visible" />
        </g>
      </g>
      <path
         transform="matrix(1.07326,0,0,1.07326,-2.675697,-2.9908)"
         d="M 40.534886 39.872093 A 4.0116282 4.0116282 0 1 1  32.51163,39.872093 A 4.0116282 4.0116282 0 1 1  40.534886 39.872093 z"
         sodipodi:ry="4.0116282"
         sodipodi:rx="4.0116282"
         sodipodi:cy="39.872093"
         sodipodi:cx="36.523258"
         id="path4119"
         style="opacity:1;color:#000000;fill:none;fill-opacity:1;fill-rule:nonzero;stroke:url(#linearGradient1372);stroke-width:1.73877704;stroke-linecap:round;stroke-linejoin:round;marker:none;marker-start:none;marker-mid:none;marker-end:none;stroke-miterlimit:4;stroke-dasharray:none;stroke-dashoffset:0;stroke-opacity:1;visibility:visible;display:inline;overflow:visible"
         sodipodi:type="arc" />
    </g>
    <g
       id="g1374"
       transform="matrix(-0.814844,0.218337,-0.218337,-0.814844,58.38198,43.98286)">
      <g
         transform="matrix(0.808368,0,0,0.808368,61.57098,17.88987)"
         id="g1376">
        <g
           id="g1378">
          <path
             sodipodi:nodetypes="cccccsssccccccccccccccccccsssc"
             id="path1380"
             d="M -32,-16.09375 L -35.1875,-10.5625 L -35.1875,11.5 L -38.0625,11.5 L -38.0625,16.46875 C -41.041875,18.398496 -43.000001,21.444605 -43,25 C -42.999999,30.930792 -37.624001,35.750002 -31,35.75 C -24.375998,35.750001 -18.999999,30.930791 -19,25 C -18.999999,20.986492 -21.582812,17.726365 -25.25,15.9375 L -25.25,11.5 L -28.09375,11.5 L -28.09375,11.34375 L -29.375,10.09375 L -29.375,6.84375 L -26.8125,6.1875 L -29.34375,3.65625 L -26.8125,3.65625 L -26.8125,-0.25 L -29.34375,-0.25 L -29.34375,-2.75 L -27.375,-3.875 L -27.375,-7.78125 L -28.78125,-8.90625 L -25.6875,-9.75 L -32,-16.09375 z M -31,23.082509 C -28.793233,23.082508 -27,24.875742 -27,27.082509 C -27,29.289277 -28.793233,31.082509 -31,31.082509 C -33.206767,31.082507 -35,29.289276 -35,27.082509 C -35.000001,24.875743 -33.206767,23.082509 -31,23.082509 z "
             style="opacity:1;color:#000000;fill:url(#linearGradient1394);fill-opacity:1;fill-rule:nonzero;stroke:#3c3c3c;stroke-width:1.90635478;stroke-linecap:round;stroke-linejoin:round;marker:none;marker-start:none;marker-mid:none;marker-end:none;stroke-miterlimit:4;stroke-dasharray:none;stroke-dashoffset:0;stroke-opacity:1;visibility:visible;display:inline;overflow:visible" />
          <path
             sodipodi:nodetypes="ccsssccc"
             id="path1382"
             d="M -37.031614,12.403172 L -37.031614,16.889634 C -39.811561,18.659166 -42.196757,21.801215 -42.196756,25.061431 C -42.196755,30.499831 -37.180607,34.918936 -30.999992,34.918934 C -24.819375,34.918935 -19.803226,30.49983 -19.803227,25.061431 C -19.803226,21.381137 -22.701527,18.112605 -26.123248,16.472257 L -26.123248,12.403172 L -37.031614,12.403172 z "
             style="opacity:1;color:#000000;fill:none;fill-opacity:1;fill-rule:nonzero;stroke:#ffffff;stroke-width:1.0653758;stroke-linecap:round;stroke-linejoin:round;marker:none;marker-start:none;marker-mid:none;marker-end:none;stroke-miterlimit:4;stroke-dasharray:none;stroke-dashoffset:0;stroke-opacity:1;visibility:visible;display:inline;overflow:visible" />
        </g>
        <path
           style="fill:none;fill-opacity:0.75;fill-rule:evenodd;stroke:#ffffff;stroke-width:1.59806478;stroke-linecap:round;stroke-linejoin:miter;stroke-miterlimit:4;stroke-dasharray:none;stroke-opacity:1"
           d="M -34.056721,12.265956 L -34.056721,-9.9339092 L -31.510884,-14.343428"
           id="path1384" />
        <g
           id="g1386">
          <path
             sodipodi:nodetypes="cccccccccccccccccccc"
             id="path1388"
             d="M -32,-16.09375 L -35.1875,-10.5625 L -35.1875,11.5 L -38.0625,11.5 L -25.25,11.5 L -28.09375,11.5 L -28.09375,11.34375 L -29.375,10.09375 L -29.375,6.84375 L -26.8125,6.1875 L -29.34375,3.65625 L -26.8125,3.65625 L -26.8125,-0.25 L -29.34375,-0.25 L -29.34375,-2.75 L -27.375,-3.875 L -27.375,-7.78125 L -28.78125,-8.90625 L -25.6875,-9.75 L -32,-16.09375 z "
             style="opacity:1;color:#000000;fill:url(#linearGradient1396);fill-opacity:1;fill-rule:nonzero;stroke:none;stroke-width:1;stroke-linecap:round;stroke-linejoin:round;marker:none;marker-start:none;marker-mid:none;marker-end:none;stroke-miterlimit:4;stroke-dasharray:none;stroke-dashoffset:0;stroke-opacity:1;visibility:visible;display:inline;overflow:visible" />
          <path
             sodipodi:nodetypes="ccsssccc"
             id="path1390"
             d="M -37.031614,12.403172 L -37.031614,16.889634 C -39.811561,18.659166 -42.196757,21.801215 -42.196756,25.061431 C -42.196755,30.499831 -37.180607,34.918936 -30.999992,34.918934 C -24.819375,34.918935 -19.803226,30.49983 -19.803227,25.061431 C -19.803226,21.381137 -22.701527,18.112605 -26.123248,16.472257 L -26.123248,12.403172 L -37.031614,12.403172 z "
             style="opacity:1;color:#000000;fill:none;fill-opacity:1;fill-rule:nonzero;stroke:#ffffff;stroke-width:1.0653758;stroke-linecap:round;stroke-linejoin:round;marker:none;marker-start:none;marker-mid:none;marker-end:none;stroke-miterlimit:4;stroke-dasharray:none;stroke-dashoffset:0;stroke-opacity:1;visibility:visible;display:inline;overflow:visible" />
        </g>
      </g>
      <path
         transform="matrix(1.07326,0,0,1.07326,-2.675697,-2.9908)"
         d="M 40.534886 39.872093 A 4.0116282 4.0116282 0 1 1  32.51163,39.872093 A 4.0116282 4.0116282 0 1 1  40.534886 39.872093 z"
         sodipodi:ry="4.0116282"
         sodipodi:rx="4.0116282"
         sodipodi:cy="39.872093"
         sodipodi:cx="36.523258"
         id="path1392"
         style="opacity:1;color:#000000;fill:none;fill-opacity:1;fill-rule:nonzero;stroke:url(#linearGradient1398);stroke-width:1.65674555;stroke-linecap:round;stroke-linejoin:round;marker:none;marker-start:none;marker-mid:none;marker-end:none;stroke-miterlimit:4;stroke-dasharray:none;stroke-dashoffset:0;stroke-opacity:1;visibility:visible;display:inline;overflow:visible"
         sodipodi:type="arc" />
    </g>
    <path
       style="opacity:1;fill:url(#radialGradient2295);fill-opacity:1.0;stroke:#a78120;stroke-width:1;stroke-linecap:round;stroke-linejoin:round;stroke-miterlimit:4;stroke-dasharray:none;stroke-opacity:1"
       d="M 12.34375 0.4375 C 6.1072 0.82355022 1.1875001 5.9571167 1.1875 12.1875 C 1.1875 18.668681 6.5348925 23.9375 13.125 23.9375 C 16.728965 23.9375 19.966949 22.363061 22.15625 19.875 L 21.8125 18.25 L 20.625 17.40625 L 20.65625 17.21875 C 18.959454 19.256939 16.328805 20.5625 13.40625 20.5625 C 8.3086275 20.562499 4.1875 16.589235 4.1875 11.6875 C 4.1874999 6.9389443 8.0603342 3.0504789 12.9375 2.8125 C 13.094828 2.8048233 13.246949 2.8125 13.40625 2.8125 C 17.679491 2.8125001 21.288221 5.6157075 22.34375 9.40625 L 23.34375 9.28125 L 24.71875 9.40625 C 23.443905 4.2697251 18.736889 0.43750001 13.125 0.4375 C 12.970544 0.4375 12.809289 0.43177309 12.65625 0.4375 C 12.556615 0.44122845 12.442743 0.43137222 12.34375 0.4375 z "
       id="path1400" />
  </g>
</svg>
